[gd_resource type="DynamicFont" load_steps=2 format=2]

[ext_resource path="res://assets/fonts/Jellee-Roman.otf" type="DynamicFontData" id=1]

[resource]
size = 32
use_filter = true
font_data = ExtResource( 1 )
