[gd_scene load_steps=2 format=2]

[ext_resource path="res://src/autoload/Globals.gd" type="Script" id=1]

[node name="Globals" type="CanvasLayer"]
layer = 2
script = ExtResource( 1 )

[node name="AcceptDialog" type="AcceptDialog" parent="."]
unique_name_in_owner = true
margin_right = 648.0
margin_bottom = 301.0
popup_exclusive = true
window_title = "Error"
dialog_autowrap = true
